simulation/qsim/4bitRCAdder.msim.vcd
$comment
	File created using the following command:
		vcd file 4bitRCAdder.msim.vcd -direction
$end
$date
	Tue Jan 20 21:05:48 2015
$end
$version
	ModelSim Version 10.1d
$end
$timescale
	1ps
$end
$scope module fourbitRCAdder_vlg_vec_tst $end
$var reg 4 ! A [3:0] $end
$var reg 4 " B [3:0] $end
$var wire 1 # carry $end
$var wire 1 $ sum [3] $end
$var wire 1 % sum [2] $end
$var wire 1 & sum [1] $end
$var wire 1 ' sum [0] $end
$var wire 1 ( sampler $end
$scope module i1 $end
$var wire 1 ) gnd $end
$var wire 1 * vcc $end
$var wire 1 + unknown $end
$var tri1 1 , devclrn $end
$var tri1 1 - devpor $end
$var tri1 1 . devoe $end
$var wire 1 / sum[0]~output_o $end
$var wire 1 0 sum[1]~output_o $end
$var wire 1 1 sum[2]~output_o $end
$var wire 1 2 sum[3]~output_o $end
$var wire 1 3 carry~output_o $end
$var wire 1 4 A[0]~input_o $end
$var wire 1 5 B[0]~input_o $end
$var wire 1 6 Fadder1|w1~combout $end
$var wire 1 7 A[1]~input_o $end
$var wire 1 8 B[1]~input_o $end
$var wire 1 9 Fadder2|S~0_combout $end
$var wire 1 : A[2]~input_o $end
$var wire 1 ; B[2]~input_o $end
$var wire 1 < Fadder2|comb~0_combout $end
$var wire 1 = Fadder3|S~0_combout $end
$var wire 1 > B[3]~input_o $end
$var wire 1 ? A[3]~input_o $end
$var wire 1 @ Fadder3|comb~0_combout $end
$var wire 1 A Fadder4|S~combout $end
$var wire 1 B Fadder4|comb~0_combout $end
$upscope $end
$upscope $end
$enddefinitions $end
#0
$dumpvars
b1111 !
b0 "
0#
1'
1&
1%
1$
x(
0)
1*
x+
1,
1-
1.
1/
10
11
12
03
14
05
16
17
08
19
1:
0;
0<
1=
0>
1?
0@
1A
0B
$end
#10000
b1 "
15
0(
1<
09
06
1@
00
0/
0&
0'
0=
01
0%
1B
0A
13
02
1#
0$
#20000
b11 "
b10 "
05
18
1(
16
1/
1'
#30000
b11 "
15
0(
19
06
10
0/
1&
0'
#40000
b111 "
b101 "
b100 "
05
08
1;
1(
0<
16
1=
1/
11
1'
1%
0=
01
0%
#50000
b101 "
15
0(
1<
09
06
00
0/
0&
0'
1=
11
1%
#60000
b111 "
b110 "
05
18
1(
16
1/
1'
#70000
b111 "
15
0(
19
06
10
0/
1&
0'
#80000
b1111 "
b1011 "
b1001 "
b1000 "
05
08
0;
1>
1(
0<
16
0=
1A
0@
1/
01
12
1'
0%
1$
1=
11
1%
0A
02
0$
#90000
b1001 "
15
0(
1<
09
06
1@
00
0/
0&
0'
0=
01
0%
1A
12
1$
#100000
b1011 "
b1010 "
05
18
1(
16
1/
1'
#110000
b1011 "
15
0(
19
06
10
0/
1&
0'
#120000
b1111 "
b1101 "
b1100 "
05
08
1;
1(
0<
16
1=
1/
11
1'
1%
0=
01
0%
#130000
b1101 "
15
0(
1<
09
06
00
0/
0&
0'
1=
11
1%
#140000
b1111 "
b1110 "
05
18
1(
16
1/
1'
#150000
b1111 "
15
0(
19
06
10
0/
1&
0'
#160000
b111 "
b11 "
b1 "
b0 "
05
08
0;
0>
1(
0<
16
0=
0A
0@
1/
01
02
1'
0%
0$
1=
11
1%
0B
1A
03
12
0#
1$
#170000
b1 "
15
0(
1<
09
06
1@
00
0/
0&
0'
0=
01
0%
1B
0A
13
02
1#
0$
#180000
b11 "
b10 "
05
18
1(
16
1/
1'
#190000
b11 "
15
0(
19
06
10
0/
1&
0'
#200000
b111 "
b101 "
b100 "
05
08
1;
1(
0<
16
1=
1/
11
1'
1%
0=
01
0%
#210000
b101 "
15
0(
1<
09
06
00
0/
0&
0'
1=
11
1%
#220000
b111 "
b110 "
05
18
1(
16
1/
1'
#230000
b111 "
15
0(
19
06
10
0/
1&
0'
#240000
b1111 "
b1011 "
b1001 "
b1000 "
05
08
0;
1>
1(
0<
16
0=
1A
0@
1/
01
12
1'
0%
1$
1=
11
1%
0A
02
0$
#250000
b1001 "
15
0(
1<
09
06
1@
00
0/
0&
0'
0=
01
0%
1A
12
1$
#260000
b1011 "
b1010 "
05
18
1(
16
1/
1'
#270000
b1011 "
15
0(
19
06
10
0/
1&
0'
#280000
b1111 "
b1101 "
b1100 "
05
08
1;
1(
0<
16
1=
1/
11
1'
1%
0=
01
0%
#290000
b1101 "
15
0(
1<
09
06
00
0/
0&
0'
1=
11
1%
#300000
b1111 "
b1110 "
05
18
1(
16
1/
1'
#310000
b1111 "
15
0(
19
06
10
0/
1&
0'
#320000
b111 "
b11 "
b1 "
b0 "
05
08
0;
0>
1(
0<
16
0=
0A
0@
1/
01
02
1'
0%
0$
1=
11
1%
0B
1A
03
12
0#
1$
#330000
b1 "
15
0(
1<
09
06
1@
00
0/
0&
0'
0=
01
0%
1B
0A
13
02
1#
0$
#340000
b11 "
b10 "
05
18
1(
16
1/
1'
#350000
b11 "
15
0(
19
06
10
0/
1&
0'
#360000
b111 "
b101 "
b100 "
05
08
1;
1(
0<
16
1=
1/
11
1'
1%
0=
01
0%
#370000
b101 "
15
0(
1<
09
06
00
0/
0&
0'
1=
11
1%
#380000
b111 "
b110 "
05
18
1(
16
1/
1'
#390000
b111 "
15
0(
19
06
10
0/
1&
0'
#400000
b1111 "
b1011 "
b1001 "
b1000 "
05
08
0;
1>
1(
0<
16
0=
1A
0@
1/
01
12
1'
0%
1$
1=
11
1%
0A
02
0$
#410000
b1001 "
15
0(
1<
09
06
1@
00
0/
0&
0'
0=
01
0%
1A
12
1$
#420000
b1011 "
b1010 "
05
18
1(
16
1/
1'
#430000
b1011 "
15
0(
19
06
10
0/
1&
0'
#440000
b1111 "
b1101 "
b1100 "
05
08
1;
1(
0<
16
1=
1/
11
1'
1%
0=
01
0%
#450000
b1101 "
15
0(
1<
09
06
00
0/
0&
0'
1=
11
1%
#460000
b1111 "
b1110 "
05
18
1(
16
1/
1'
#470000
b1111 "
15
0(
19
06
10
0/
1&
0'
#480000
b111 "
b11 "
b1 "
b0 "
05
08
0;
0>
1(
0<
16
0=
0A
0@
1/
01
02
1'
0%
0$
1=
11
1%
0B
1A
03
12
0#
1$
#490000
b1 "
15
0(
1<
09
06
1@
00
0/
0&
0'
0=
01
0%
1B
0A
13
02
1#
0$
#500000
b11 "
b10 "
05
18
1(
16
1/
1'
#510000
b11 "
15
0(
19
06
10
0/
1&
0'
#520000
b111 "
b101 "
b100 "
05
08
1;
1(
0<
16
1=
1/
11
1'
1%
0=
01
0%
#530000
b101 "
15
0(
1<
09
06
00
0/
0&
0'
1=
11
1%
#540000
b111 "
b110 "
05
18
1(
16
1/
1'
#550000
b111 "
15
0(
19
06
10
0/
1&
0'
#560000
b1111 "
b1011 "
b1001 "
b1000 "
05
08
0;
1>
1(
0<
16
0=
1A
0@
1/
01
12
1'
0%
1$
1=
11
1%
0A
02
0$
#570000
b1001 "
15
0(
1<
09
06
1@
00
0/
0&
0'
0=
01
0%
1A
12
1$
#580000
b1011 "
b1010 "
05
18
1(
16
1/
1'
#590000
b1011 "
15
0(
19
06
10
0/
1&
0'
#600000
b1111 "
b1101 "
b1100 "
05
08
1;
1(
0<
16
1=
1/
11
1'
1%
0=
01
0%
#610000
b1101 "
15
0(
1<
09
06
00
0/
0&
0'
1=
11
1%
#620000
b1111 "
b1110 "
05
18
1(
16
1/
1'
#630000
b1111 "
15
0(
19
06
10
0/
1&
0'
#640000
b111 "
b11 "
b1 "
b0 "
05
08
0;
0>
1(
0<
16
0=
0A
0@
1/
01
02
1'
0%
0$
1=
11
1%
0B
1A
03
12
0#
1$
#650000
b1 "
15
0(
1<
09
06
1@
00
0/
0&
0'
0=
01
0%
1B
0A
13
02
1#
0$
#660000
b11 "
b10 "
05
18
1(
16
1/
1'
#670000
b11 "
15
0(
19
06
10
0/
1&
0'
#680000
b111 "
b101 "
b100 "
05
08
1;
1(
0<
16
1=
1/
11
1'
1%
0=
01
0%
#690000
b101 "
15
0(
1<
09
06
00
0/
0&
0'
1=
11
1%
#700000
b111 "
b110 "
05
18
1(
16
1/
1'
#710000
b111 "
15
0(
19
06
10
0/
1&
0'
#720000
b1111 "
b1011 "
b1001 "
b1000 "
05
08
0;
1>
1(
0<
16
0=
1A
0@
1/
01
12
1'
0%
1$
1=
11
1%
0A
02
0$
#730000
b1001 "
15
0(
1<
09
06
1@
00
0/
0&
0'
0=
01
0%
1A
12
1$
#740000
b1011 "
b1010 "
05
18
1(
16
1/
1'
#750000
b1011 "
15
0(
19
06
10
0/
1&
0'
#760000
b1111 "
b1101 "
b1100 "
05
08
1;
1(
0<
16
1=
1/
11
1'
1%
0=
01
0%
#770000
b1101 "
15
0(
1<
09
06
00
0/
0&
0'
1=
11
1%
#780000
b1111 "
b1110 "
05
18
1(
16
1/
1'
#790000
b1111 "
15
0(
19
06
10
0/
1&
0'
#800000
b111 "
b11 "
b1 "
b0 "
05
08
0;
0>
1(
0<
16
0=
0A
0@
1/
01
02
1'
0%
0$
1=
11
1%
0B
1A
03
12
0#
1$
#810000
b1 "
15
0(
1<
09
06
1@
00
0/
0&
0'
0=
01
0%
1B
0A
13
02
1#
0$
#820000
b11 "
b10 "
05
18
1(
16
1/
1'
#830000
b11 "
15
0(
19
06
10
0/
1&
0'
#840000
b111 "
b101 "
b100 "
05
08
1;
1(
0<
16
1=
1/
11
1'
1%
0=
01
0%
#850000
b101 "
15
0(
1<
09
06
00
0/
0&
0'
1=
11
1%
#860000
b111 "
b110 "
05
18
1(
16
1/
1'
#870000
b111 "
15
0(
19
06
10
0/
1&
0'
#880000
b1111 "
b1011 "
b1001 "
b1000 "
05
08
0;
1>
1(
0<
16
0=
1A
0@
1/
01
12
1'
0%
1$
1=
11
1%
0A
02
0$
#890000
b1001 "
15
0(
1<
09
06
1@
00
0/
0&
0'
0=
01
0%
1A
12
1$
#900000
b1011 "
b1010 "
05
18
1(
16
1/
1'
#910000
b1011 "
15
0(
19
06
10
0/
1&
0'
#920000
b1111 "
b1101 "
b1100 "
05
08
1;
1(
0<
16
1=
1/
11
1'
1%
0=
01
0%
#930000
b1101 "
15
0(
1<
09
06
00
0/
0&
0'
1=
11
1%
#940000
b1111 "
b1110 "
05
18
1(
16
1/
1'
#950000
b1111 "
15
0(
19
06
10
0/
1&
0'
#960000
b111 "
b11 "
b1 "
b0 "
05
08
0;
0>
1(
0<
16
0=
0A
0@
1/
01
02
1'
0%
0$
1=
11
1%
0B
1A
03
12
0#
1$
#970000
b1 "
15
0(
1<
09
06
1@
00
0/
0&
0'
0=
01
0%
1B
0A
13
02
1#
0$
#980000
b11 "
b10 "
05
18
1(
16
1/
1'
#990000
b11 "
15
0(
19
06
10
0/
1&
0'
